﻿dirtroad = {		
	id = 0
	default_style = 0
	color = { 0.75 0.75 0 }
	merge_with_types = { }	# Specifed with id numbers
	anchor_sparsity = 1 # Number of NavMesh vertices to skip between each anchor
	anchor_type = 0
}

railroad = {
	id = 1
	default_style = 1
	color = { 0.875 0 0 }
	merge_with_types = { }	
	anchor_sparsity = 1 # Number of NavMesh vertices to skip between each anchor
	anchor_type = 0
}

naval_route = {
	id = 2
	default_style = 2
	color = { 0 0 0.80 }
	merge_with_types = { 2 3 4 }	#Anbennar I assume!
	anchor_sparsity = 8 # Number of NavMesh vertices to skip between each anchor
	anchor_type = 1
}

coastal_naval_route = {
	id = 3
	default_style = 3
	color = { 0.40 0 0.80 }
	merge_with_types = { 2 3 4}
	anchor_sparsity = 8 # Number of NavMesh vertices to skip between each anchor
	anchor_type = 1
}

pavedroad = {	 #this is our air route	
	id = 4
	default_style = 4
	color = { 0.75 0 1.5 }
	merge_with_types = { 2 3 4 }	# Specifed with id numbers
	anchor_sparsity = 8 # Number of NavMesh vertices to skip between each anchor
	anchor_type = 1
}

pavedroadsandstone = {		
	id = 5
	default_style = 5
	color = { 0.75 0.75 1 }
	merge_with_types = { }	# Specifed with id numbers
	anchor_sparsity = 1 # Number of NavMesh vertices to skip between each anchor
	anchor_type = 0
}

undeveloped = {
	id = 6
	default_style = 6
	color = { 0.25 0.25 0.25 }
	merge_with_types = { }	# Specifed with id numbers
	anchor_sparsity = 1 # Number of NavMesh vertices to skip between each anchor
	anchor_type = 0
}

air_route = {	#Anbennar I assume!
	id = 7
	default_style = 7
	color = { 0.85 0 1.5 }
	merge_with_types = { 2 3 }	
	anchor_sparsity = 8 # Number of NavMesh vertices to skip between each anchor
	anchor_type = 1
}

river = {
	id = 15
	default_style = 255
	color = { 0.0 0.0 1.0 }
	merge_with_types = { }	# Specifed with id numbers
	anchor_type = 0
}
