﻿dna_placeholder_huszien={
	portrait_info = {
	genes={ 		
		hair_color={ 53 223 60 229 }
 		skin_color={ 255 12 51 43 }
 		eye_color={ 221 0 50 247 }
 		gene_cheek_fat={ "cheek_fat" 136 "cheek_fat" 162 }
 		gene_cheek_forward={ "cheek_forward" 168 "cheek_forward" 142 }
 		gene_cheek_height={ "cheek_height" 167 "cheek_height" 127 }
 		gene_cheek_prom={ "cheek_prom" 141 "cheek_prom" 127 }
 		gene_cheek_width={ "cheek_width" 152 "cheek_width" 174 }
 		gene_chin_forward={ "chin_forward" 121 "chin_forward" 127 }
 		gene_chin_height={ "chin_height" 138 "chin_height" 127 }
 		gene_chin_width={ "chin_width" 138 "chin_width" 127 }
 		gene_ear_angle={ "ear_angle" 127 "ear_angle" 127 }
 		gene_ear_inner_shape={ "ear_inner_shape" 127 "ear_inner_shape" 127 }
 		gene_ear_lower_bend={ "ear_lower_bend" 127 "ear_lower_bend" 127 }
 		gene_ear_out={ "ear_out" 127 "ear_out" 127 }
 		gene_ear_size={ "ear_size" 127 "ear_size" 127 }
 		gene_ear_upper_bend={ "ear_upper_bend" 127 "ear_upper_bend" 127 }
 		gene_eye_angle={ "eye_angle" 205 "eye_angle" 160 }
 		gene_eye_depth={ "eye_depth" 136 "eye_depth" 78 }
 		gene_eye_distance={ "eye_distance" 123 "eye_distance" 123 }
 		gene_eye_height={ "eye_height" 119 "eye_height" 64 }
 		gene_eye_shut={ "eye_shut" 216 "eye_shut" 131 }
 		gene_eye_corner_def={ "eye_corner_def" 147 "eye_corner_def" 127 }
 		gene_eye_corner_depth_min={ "eye_corner_depth_min" 229 "eye_corner_depth_min" 229 }
 		gene_eye_fold_droop={ "eye_fold_droop" 104 "eye_fold_droop" 255 }
 		gene_eye_fold_shape={ "eye_fold_shape" 61 "eye_fold_shape" 0 }
 		gene_eye_size={ "eye_size" 142 "eye_size" 71 }
 		gene_eye_upper_lid_size={ "eye_upper_lid_size" 0 "eye_upper_lid_size" 0 }
 		gene_forehead_angle={ "forehead_angle" 130 "forehead_angle" 127 }
 		gene_forehead_brow_curve={ "forehead_brow_curve" 136 "forehead_brow_curve" 127 }
 		gene_forehead_brow_forward={ "forehead_brow_forward" 127 "forehead_brow_forward" 127 }
 		gene_forehead_brow_height={ "forehead_brow_height" 164 "forehead_brow_height" 176 }
 		gene_forehead_brow_inner_height={ "forehead_brow_inner_height" 127 "forehead_brow_inner_height" 127 }
 		gene_forehead_brow_outer_height={ "forehead_brow_outer_height" 127 "forehead_brow_outer_height" 127 }
 		gene_forehead_brow_width={ "forehead_brow_width" 127 "forehead_brow_width" 127 }
 		gene_forehead_height={ "forehead_height" 152 "forehead_height" 130 }
 		gene_forehead_roundness={ "forehead_roundness" 112 "forehead_roundness" 127 }
 		gene_forehead_width={ "forehead_width" 119 "forehead_width" 127 }
 		gene_head_height={ "head_height" 184 "head_height" 127 }
 		gene_head_profile={ "head_profile" 119 "head_profile" 72 }
 		gene_head_top_height={ "head_top_height" 127 "head_top_height" 127 }
 		gene_head_top_width={ "head_top_width" 151 "head_top_width" 226 }
 		gene_head_width={ "head_width" 123 "head_width" 127 }
 		gene_jaw_angle={ "jaw_angle" 211 "jaw_angle" 127 }
 		gene_jaw_def={ "jaw_def" 255 "jaw_def" 195 }
 		gene_jaw_forward={ "jaw_forward" 123 "jaw_forward" 127 }
 		gene_jaw_height={ "jaw_height" 117 "jaw_height" 117 }
 		gene_jaw_width={ "jaw_width" 135 "jaw_width" 200 }
 		gene_mouth_corner_height={ "mouth_corner_height" 221 "mouth_corner_height" 157 }
 		gene_mouth_forward={ "mouth_forward" 127 "mouth_forward" 127 }
 		gene_mouth_height={ "mouth_height" 127 "mouth_height" 127 }
 		gene_mouth_lower_lip_def={ "mouth_lower_lip_def" 255 "mouth_lower_lip_def" 127 }
 		gene_mouth_lower_lip_full={ "mouth_lower_lip_full" 112 "mouth_lower_lip_full" 126 }
 		gene_mouth_lower_lip_pads={ "mouth_lower_lip_pads" 123 "mouth_lower_lip_pads" 127 }
 		gene_mouth_lower_lip_size={ "mouth_lower_lip_size" 72 "mouth_lower_lip_size" 139 }
 		gene_mouth_lower_lip_width={ "mouth_lower_lip_width" 124 "mouth_lower_lip_width" 127 }
 		gene_mouth_open={ "mouth_open" 80 "mouth_open" 127 }
 		gene_mouth_philtrum_curve={ "mouth_philtrum_curve" 255 "mouth_philtrum_curve" 127 }
 		gene_mouth_philtrum_def={ "mouth_philtrum_def" 121 "mouth_philtrum_def" 127 }
 		gene_mouth_philtrum_width={ "mouth_philtrum_width" 116 "mouth_philtrum_width" 127 }
 		gene_mouth_upper_lip_curve={ "mouth_upper_lip_curve" 82 "mouth_upper_lip_curve" 102 }
 		gene_mouth_upper_lip_def={ "mouth_upper_lip_def" 255 "mouth_upper_lip_def" 127 }
 		gene_mouth_upper_lip_full={ "mouth_upper_lip_full" 100 "mouth_upper_lip_full" 49 }
 		gene_mouth_upper_lip_width={ "mouth_upper_lip_width" 94 "mouth_upper_lip_width" 127 }
 		gene_mouth_upper_lip_size={ "mouth_upper_lip_size" 122 "mouth_upper_lip_size" 141 }
 		gene_mouth_width={ "mouth_width" 72 "mouth_width" 106 }
 		gene_nose_curve={ "nose_curve" 94 "nose_curve" 140 }
 		gene_nose_forward={ "nose_forward" 158 "nose_forward" 107 }
 		gene_nose_hawk={ "nose_hawk" 156 "nose_hawk" 87 }
 		gene_nose_height={ "nose_height" 84 "nose_height" 114 }
 		gene_nose_length={ "nose_length" 141 "nose_length" 137 }
 		gene_nose_nostril_angle={ "nose_nostril_angle" 76 "nose_nostril_angle" 36 }
 		gene_nose_nostril_height={ "nose_nostril_height" 103 "nose_nostril_height" 103 }
 		gene_nose_nostril_width={ "nose_nostril_width" 146 "nose_nostril_width" 146 }
 		gene_nose_ridge_angle={ "nose_ridge_angle" 126 "nose_ridge_angle" 126 }
 		gene_nose_ridge_def={ "nose_ridge_def" 118 "nose_ridge_def" 127 }
 		gene_nose_ridge_def_min={ "nose_ridge_def_min" 85 "nose_ridge_def_min" 229 }
 		gene_nose_ridge_width={ "nose_ridge_width" 101 "nose_ridge_width" 195 }
 		gene_nose_size={ "nose_size" 71 "nose_size" 132 }
 		gene_nose_tip_angle={ "nose_tip_angle" 128 "nose_tip_angle" 96 }
 		gene_nose_tip_forward={ "nose_tip_forward" 150 "nose_tip_forward" 74 }
 		gene_nose_tip_width={ "nose_tip_width" 30 "nose_tip_width" 51 }
 		gene_neck_length={ "neck_length" 145 "neck_length" 145 }
 		gene_neck_width={ "neck_width" 56 "neck_width" 56 }
 		gene_bs_body_type={ "body_fat_head_fat_low_elf" 119 "body_fat_head_fat_low_elf" 127 }
 		gene_height={ "normal_height" 255 "normal_height" 127 }
 		gene_age={ "no_aging" 255 "no_aging" 127 }
 		gene_old_ears={ "old_ears_elf" 255 "old_ears_elf" 127 }
 		gene_old_eyes={ "old_eyes_elf" 0 "old_eyes_elf" 0 }
 		gene_old_forehead={ "old_forehead_elf" 255 "old_forehead_elf" 0 }
 		gene_old_mouth={ "old_mouth_elf" 255 "old_mouth_elf" 0 }
 		gene_old_nose={ "old_nose_elf" 255 "old_nose_elf" 127 }
 		gene_complexion={ "complexion_01" 255 "complexion_01" 0 }
 		gene_stubble={ "stubble_low" 127 "stubble_low" 127 }
 		gene_crowfeet={ "crowfeet_01" 0 "crowfeet_01" 0 }
 		gene_face_dacals={ "face_dacal_05" 0 "face_dacal_05" 255 }
 		gene_frown={ "frown_03" 13 "frown_03" 13 }
 		gene_surprise={ "surprise_03" 0 "surprise_03" 0 }
 		gene_eyebrows_shape={ "avg_spacing_lowest_thickness" 255 "avg_spacing_high_thickness" 163 }
 		gene_eyebrows_fullness={ "layer_2_avg_thickness" 255 "layer_2_avg_thickness" 127 }
 		hairstyles={ "all_hairstyles" 255 "east_asian_hairstyles" 147 }
 		beards={ "all_beards" 213 "all_beards" 213 }
 		mustaches={ "no_mustache" 148 "no_mustache" 148 }
 		props={ "no_prop" 0 "no_prop" 0 }
 		eye_accessory={ "normal_eyes" 0 "normal_eyes" 0 }
 		eye_lashes_accessory={ "normal_eyelashes" 0 "normal_eyelashes" 0 }
 		teeth_accessory={ "normal_teeth" 0 "normal_teeth" 0 }
 		POD_NOSschnoz={ "nosies" 0 "nosies" 0 }
 		skin_color_override={ "default_1" 127 "default_1" 127 }
 		race_gene_mer_ears_01={ "default_1" 127 "default_1" 127 }
 		race_gene_mer_ears_02={ "default_1" 127 "default_1" 127 }
 		outfits={ "korean_imperial_outfits" 255 "korean_imperial_outfits" 0 }
 		top_layer={ "cape_power_bloc" 0 "cape_power_bloc" 0 }
	}
	}
	enabled=yes
}