﻿dna_aratha_thunderchild={
	portrait_info = {
		genes={ 		
			hair_color={ 185 8 185 111 }
			skin_color={ 4 201 4 201 }
			eye_color={ 228 76 228 76 }
			gene_cheek_fat={ "cheek_fat" 81 "cheek_fat" 81 }
			gene_cheek_forward={ "cheek_forward" 154 "cheek_forward" 154 }
			gene_cheek_height={ "cheek_height" 230 "cheek_height" 230 }
			gene_cheek_prom={ "cheek_prom" 174 "cheek_prom" 174 }
			gene_cheek_width={ "cheek_width" 146 "cheek_width" 146 }
			gene_chin_forward={ "chin_forward" 116 "chin_forward" 116 }
			gene_chin_height={ "chin_height" 163 "chin_height" 163 }
			gene_chin_width={ "chin_width" 31 "chin_width" 31 }
			gene_ear_angle={ "ear_angle" 129 "ear_angle" 129 }
			gene_ear_inner_shape={ "ear_inner_shape" 133 "ear_inner_shape" 133 }
			gene_ear_lower_bend={ "ear_lower_bend" 30 "ear_lower_bend" 30 }
			gene_ear_out={ "ear_out" 131 "ear_out" 131 }
			gene_ear_size={ "ear_size" 127 "ear_size" 127 }
			gene_ear_upper_bend={ "ear_upper_bend" 125 "ear_upper_bend" 125 }
			gene_eye_angle={ "eye_angle" 116 "eye_angle" 116 }
			gene_eye_depth={ "eye_depth" 118 "eye_depth" 118 }
			gene_eye_distance={ "eye_distance" 152 "eye_distance" 152 }
			gene_eye_height={ "eye_height" 133 "eye_height" 133 }
			gene_eye_shut={ "eye_shut" 143 "eye_shut" 143 }
			gene_eye_corner_def={ "eye_corner_def" 108 "eye_corner_def" 108 }
			gene_eye_corner_depth_min={ "eye_corner_depth_min" 119 "eye_corner_depth_min" 119 }
			gene_eye_fold_droop={ "eye_fold_droop" 134 "eye_fold_droop" 134 }
			gene_eye_fold_shape={ "eye_fold_shape" 138 "eye_fold_shape" 138 }
			gene_eye_size={ "eye_size" 112 "eye_size" 112 }
			gene_eye_upper_lid_size={ "eye_upper_lid_size" 116 "eye_upper_lid_size" 116 }
			gene_forehead_angle={ "forehead_angle" 132 "forehead_angle" 132 }
			gene_forehead_brow_curve={ "forehead_brow_curve" 198 "forehead_brow_curve" 198 }
			gene_forehead_brow_forward={ "forehead_brow_forward" 134 "forehead_brow_forward" 134 }
			gene_forehead_brow_height={ "forehead_brow_height" 101 "forehead_brow_height" 101 }
			gene_forehead_brow_inner_height={ "forehead_brow_inner_height" 107 "forehead_brow_inner_height" 107 }
			gene_forehead_brow_outer_height={ "forehead_brow_outer_height" 169 "forehead_brow_outer_height" 169 }
			gene_forehead_brow_width={ "forehead_brow_width" 137 "forehead_brow_width" 137 }
			gene_forehead_height={ "forehead_height" 119 "forehead_height" 119 }
			gene_forehead_roundness={ "forehead_roundness" 47 "forehead_roundness" 47 }
			gene_forehead_width={ "forehead_width" 131 "forehead_width" 131 }
			gene_head_height={ "head_height" 130 "head_height" 130 }
			gene_head_profile={ "head_profile" 131 "head_profile" 131 }
			gene_head_top_height={ "head_top_height" 126 "head_top_height" 126 }
			gene_head_top_width={ "head_top_width" 124 "head_top_width" 124 }
			gene_head_width={ "head_width" 53 "head_width" 53 }
			gene_jaw_angle={ "jaw_angle" 150 "jaw_angle" 150 }
			gene_jaw_def={ "jaw_def" 203 "jaw_def" 203 }
			gene_jaw_forward={ "jaw_forward" 120 "jaw_forward" 120 }
			gene_jaw_height={ "jaw_height" 153 "jaw_height" 153 }
			gene_jaw_width={ "jaw_width" 83 "jaw_width" 83 }
			gene_mouth_corner_height={ "mouth_corner_height" 97 "mouth_corner_height" 97 }
			gene_mouth_forward={ "mouth_forward" 146 "mouth_forward" 146 }
			gene_mouth_height={ "mouth_height" 119 "mouth_height" 119 }
			gene_mouth_lower_lip_def={ "mouth_lower_lip_def" 140 "mouth_lower_lip_def" 140 }
			gene_mouth_lower_lip_full={ "mouth_lower_lip_full" 157 "mouth_lower_lip_full" 157 }
			gene_mouth_lower_lip_pads={ "mouth_lower_lip_pads" 134 "mouth_lower_lip_pads" 134 }
			gene_mouth_lower_lip_size={ "mouth_lower_lip_size" 136 "mouth_lower_lip_size" 136 }
			gene_mouth_lower_lip_width={ "mouth_lower_lip_width" 121 "mouth_lower_lip_width" 121 }
			gene_mouth_open={ "mouth_open" 135 "mouth_open" 135 }
			gene_mouth_philtrum_curve={ "mouth_philtrum_curve" 139 "mouth_philtrum_curve" 139 }
			gene_mouth_philtrum_def={ "mouth_philtrum_def" 117 "mouth_philtrum_def" 117 }
			gene_mouth_philtrum_width={ "mouth_philtrum_width" 136 "mouth_philtrum_width" 136 }
			gene_mouth_upper_lip_curve={ "mouth_upper_lip_curve" 115 "mouth_upper_lip_curve" 115 }
			gene_mouth_upper_lip_def={ "mouth_upper_lip_def" 137 "mouth_upper_lip_def" 137 }
			gene_mouth_upper_lip_full={ "mouth_upper_lip_full" 168 "mouth_upper_lip_full" 168 }
			gene_mouth_upper_lip_width={ "mouth_upper_lip_width" 126 "mouth_upper_lip_width" 126 }
			gene_mouth_upper_lip_size={ "mouth_upper_lip_size" 121 "mouth_upper_lip_size" 121 }
			gene_mouth_width={ "mouth_width" 77 "mouth_width" 77 }
			gene_nose_curve={ "nose_curve" 150 "nose_curve" 150 }
			gene_nose_forward={ "nose_forward" 143 "nose_forward" 143 }
			gene_nose_hawk={ "nose_hawk" 65 "nose_hawk" 65 }
			gene_nose_height={ "nose_height" 89 "nose_height" 89 }
			gene_nose_length={ "nose_length" 130 "nose_length" 130 }
			gene_nose_nostril_angle={ "nose_nostril_angle" 118 "nose_nostril_angle" 118 }
			gene_nose_nostril_height={ "nose_nostril_height" 134 "nose_nostril_height" 134 }
			gene_nose_nostril_width={ "nose_nostril_width" 108 "nose_nostril_width" 108 }
			gene_nose_ridge_angle={ "nose_ridge_angle" 140 "nose_ridge_angle" 140 }
			gene_nose_ridge_def={ "nose_ridge_def" 134 "nose_ridge_def" 134 }
			gene_nose_ridge_def_min={ "nose_ridge_def_min" 122 "nose_ridge_def_min" 122 }
			gene_nose_ridge_width={ "nose_ridge_width" 98 "nose_ridge_width" 98 }
			gene_nose_size={ "nose_size" 130 "nose_size" 130 }
			gene_nose_tip_angle={ "nose_tip_angle" 118 "nose_tip_angle" 118 }
			gene_nose_tip_forward={ "nose_tip_forward" 140 "nose_tip_forward" 140 }
			gene_nose_tip_width={ "nose_tip_width" 133 "nose_tip_width" 133 }
			gene_neck_length={ "neck_length" 138 "neck_length" 138 }
			gene_neck_width={ "neck_width" 88 "neck_width" 88 }
			gene_bs_body_type={ "body_fat_head_fat_low_elf" 126 "body_fat_head_fat_low_elf" 126 }
			gene_height={ "normal_height" 127 "normal_height" 127 }
			gene_age={ "anb_elf_aging" 161 "anb_elf_aging" 161 }
			gene_old_ears={ "old_ears_elf" 9 "old_ears_elf" 9 }
			gene_old_eyes={ "old_eyes_elf" 20 "old_eyes_elf" 20 }
			gene_old_forehead={ "old_forehead_elf" 1 "old_forehead_elf" 1 }
			gene_old_mouth={ "old_mouth_elf" 17 "old_mouth_elf" 17 }
			gene_old_nose={ "old_nose_elf" 24 "old_nose_elf" 24 }
			gene_complexion={ "complexion_02" 0 "complexion_02" 0 }
			gene_stubble={ "stubble_low" 0 "stubble_low" 0 }
			gene_crowfeet={ "crowfeet_01" 0 "crowfeet_01" 0 }
			gene_face_dacals={ "face_dacal_03" 255 "face_dacal_03" 255 }
			gene_frown={ "frown_01" 8 "frown_01" 8 }
			gene_surprise={ "surprise_01" 21 "surprise_01" 21 }
			gene_eyebrows_shape={ "avg_spacing_high_thickness_elf" 252 "avg_spacing_high_thickness_elf" 252 }
			gene_eyebrows_fullness={ "layer_2_low_thickness_elf" 173 "layer_2_low_thickness_elf" 173 }
			hairstyles={ "elven_hairstyles" 99 "elven_hairstyles" 99 }
			beards={ "no_beard" 10 "no_beard" 10 }
			mustaches={ "no_mustache" 234 "no_mustache" 234 }
			props={ "no_prop" 0 "no_prop" 0 }
			eye_accessory={ "normal_eyes" 0 "normal_eyes" 0 }
			eye_lashes_accessory={ "normal_eyelashes" 0 "normal_eyelashes" 0 }
			teeth_accessory={ "normal_teeth" 0 "normal_teeth" 0 }
			POD_NOSschnoz={ "schnozies" 0 "schnozies" 0 }
			skin_color_override={ "default_1" 127 "default_1" 127 }
			race_gene_mer_ears_01={ "mer_ears_02" 179 "mer_ears_02" 179 }
			race_gene_mer_ears_02={ "mer_ears_01" 145 "mer_ears_01" 145 }
			outfits={ "european_outfits_agitator" 0 "all_outfits" 0 }
		}
	}
	enabled=yes
}