﻿# Anbennar - removed refs to CHI

law_no_migration_controls = {
	group = lawgroup_migration
	icon = "gfx/interface/icons/law_icons/no_migration_controls.dds"
	
	progressiveness = 50
	
	modifier = {
		country_leverage_resistance_mult = -0.25
	}
	
	
	possible_political_movements = {
		law_migration_controls
	}	
	pop_support = {
		value = 0
	}

	ai_enact_weight_modifier = { #Petitions
		value = 0
		
		if = {
			limit = { ai_has_enact_weight_modifier_journal_entries = yes }
			add = 750
		}
	}
}

law_migration_controls = {
	group = lawgroup_migration
	icon = "gfx/interface/icons/law_icons/migration_controls.dds"
	
	modifier = {
		country_disallow_discriminated_migration_bool = yes	
	}
	
	progressiveness = 0
	
	possible_political_movements = {
		law_no_migration_controls
		law_closed_borders
	}

	pop_support = {
		value = 0
		add = {
			desc = "POP_UNEMPLOYED_STATE"
			if = {
				limit = { 
					owner = { 
						NOT = { 
							has_law = law_type:law_closed_borders
						} 
					}
					state = {
						state_unemployment_rate >= 0.1
					}
				}
				value = 0.1
			}
			if = {
				limit = {
					owner = { 
						NOT = { 
							has_law = law_type:law_closed_borders
						} 
					}
					state = {
						state_unemployment_rate >= 0.2
					}
				}
				value = 0.1
			}
			if = {
				limit = { 
					owner = { 
						NOT = { 
							has_law = law_type:law_closed_borders
						} 
					}
					state = {
						state_unemployment_rate >= 0.3
					}
				}
				value = 0.1
			}
			if = {
				limit = {
					owner = { 
						NOT = { 
							has_law = law_type:law_closed_borders
						} 
					}
					state = {
						state_unemployment_rate >= 0.4
					}
				}
				value = 0.1
			}
			if = {
				limit = {
					owner = { 
						NOT = { 
							has_law = law_type:law_closed_borders
						} 
					}
					state = {
						state_unemployment_rate >= 0.5
					}
				}
				value = 0.1
			}
		}	
	}

	on_enact = {
		# if = {
		# 	limit = {
		# 		c:CHI ?= this
		# 		has_journal_entry = je_chinese_missions
		# 	}
		# 	every_scope_state = {
		# 		limit = {
		# 			NOT = {
		# 				any_neighbouring_state = {
		# 					is_treaty_port = yes
		# 					owner = {
		# 						religion = {
		# 							has_discrimination_trait = christian
		# 						}
		# 					}
		# 				}
		# 			}
		# 			has_variable = open_to_missionaries_state
		# 		}
		# 		remove_variable = open_to_missionaries_state
		# 	}
		# }
	}

	ai_enact_weight_modifier = { #Petitions
		value = 0
		
		if = {
			limit = { ai_has_enact_weight_modifier_journal_entries = yes }
			add = 750
		}
	}
}

law_closed_borders = {
	group = lawgroup_migration
	icon = "gfx/interface/icons/law_icons/closed_borders.dds"

	modifier = {
		country_disallow_migration_bool = yes
		country_disallow_agitator_invites_bool = yes
		country_leverage_resistance_mult = 0.25
	}
	
	progressiveness = -50
	
	possible_political_movements = {
		law_closed_borders
	}

	pop_support = {
		value = 0
		add = {
			desc = "POP_UNEMPLOYED_STATE"
			if = {
				limit = { 
					state = {
						state_unemployment_rate >= 0.1
					}
				}
				value = 0.1
			}
			if = {
				limit = {
					state = {
						state_unemployment_rate >= 0.2
					}
				}
				value = 0.1
			}
			if = {
				limit = { 
					state = {
						state_unemployment_rate >= 0.3
					}
				}
				value = 0.1
			}
			if = {
				limit = {
					state = {
						state_unemployment_rate >= 0.4
					}
				}
				value = 0.1
			}
			if = {
				limit = {
					state = {
						state_unemployment_rate >= 0.5
					}
				}
				value = 0.1
			}
		}	
	}

	on_enact = {
		# if = {
		# 	limit = {
		# 		c:CHI ?= this
		# 		has_journal_entry = je_chinese_missions
		# 	}
		# 	every_scope_state = {
		# 		limit = {
		# 			NOT = {
		# 				any_neighbouring_state = {
		# 					is_treaty_port = yes
		# 					owner = {
		# 						religion = {
		# 							has_discrimination_trait = christian
		# 						}
		# 					}
		# 				}
		# 			}
		# 			has_variable = open_to_missionaries_state
		# 		}
		# 		remove_variable = open_to_missionaries_state
		# 	}
		# }
	}

	ai_enact_weight_modifier = { #Petitions
		value = 0
		
		if = {
			limit = { ai_has_enact_weight_modifier_journal_entries = yes }
			add = 750
		}
	}
}
